…
```r
keeps <- c("distance", "scholarship", "parents", "car", "major_stem", "major_business","major_other", "on_campus","off_campus", "debt")
allen_data<-allendale_students[keeps]
dplyr::tbl_df(allen_data)
```

```
## # A tibble: 200 x 10
##    distance scholarship parents   car major_stem major_business major_other
##       <dbl>       <dbl>   <dbl> <dbl>      <dbl>          <dbl>       <dbl>
##  1       40        1532   0.44      6          1              0           0
##  2       30        7479   0.265     7          1              0           0
##  3      130        2664   0.115     3          0              1           0
##  4      120        1998   0.325     9          0              1           0
##  5       30        1462   0.105    10          0              0           1
##  6        0        3053   0.335     9          1              0           0
##  7       30        1301   0.375     5          0              1           0
##  8       50        1948   0.185     6          0              1           0
##  9       10        2295   0.225     8          1              0           0
## 10       10        4653   0.185     3          1              0           0
## # … with 190 more rows, and 3 more variables: on_campus <dbl>,
## #   off_campus <dbl>, debt <dbl>
```
…
```
## # A tibble: 1 x 11
##   r.squared adj.r.squared sigma statistic  p.value    df logLik   AIC   BIC
##       <dbl>         <dbl> <dbl>     <dbl>    <dbl> <int>  <dbl> <dbl> <dbl>
## 1     0.589         0.576 5522.      46.1 8.68e-35     7 -2004. 4023. 4049.
## # … with 2 more variables: deviance <dbl>, df.residual <int>
```

```r
augment(model3)
```

```
## # A tibble: 200 x 12
##     debt scholarship on_campus off_campus parents .fitted .se.fit  .resid
##    <dbl>       <dbl> <fct>     <fct>        <dbl>   <dbl>   <dbl>   <dbl>
##  1 26389        1532 0         1            0.44   27809.    920.  -1420.
##  2 21268        7479 1         0            0.265  23325.    976.  -2057.
##  3 32312        2664 1         0            0.115  36909.   1000.  -4597.
##  4 28539        1998 1         0            0.325  32484.    768.  -3945.
##  5 34867        1462 0         1            0.105  36666.    939.  -1799.
##  6 18193        3053 0         1            0.335  28428.    576. -10235.
##  7 29990        1301 0         1            0.375  29819.    761.    171.
##  8 34333        1948 0         1            0.185  33825.    676.    508.
##  9 27717        2295 1         0            0.225  34665.    723.  -6948.
## 10 21398        4653 0         1            0.185  29660.    604.  -8262.
## # … with 190 more rows, and 4 more variables: .hat <dbl>, .sigma <dbl>,
## #   .cooksd <dbl>, .std.resid <dbl>
```
…
```
## # A tibble: 1 x 11
##   r.squared adj.r.squared sigma statistic  p.value    df logLik   AIC   BIC
##       <dbl>         <dbl> <dbl>     <dbl>    <dbl> <int>  <dbl> <dbl> <dbl>
## 1     0.569         0.548 5703.      27.8 2.26e-30    10 -2008. 4039. 4075.
## # … with 2 more variables: deviance <dbl>, df.residual <int>
```

```r
augment(model4)
```

```
## # A tibble: 200 x 12
##     debt scholarship on_campus off_campus p_group .fitted .se.fit  .resid
##    <dbl>       <dbl> <fct>     <fct>      <fct>     <dbl>   <dbl>   <dbl>
##  1 26389        1532 0         1          higher…  28302.   1319. -1913. 
##  2 21268        7479 1         0          lower …  25706.   1173. -4438. 
##  3 32312        2664 1         0          lower …  35097.    913. -2785. 
##  4 28539        1998 1         0          0.2 to…  31912.   1271. -3373. 
##  5 34867        1462 0         1          lower …  35496.    850.  -629. 
##  6 18193        3053 0         1          0.2 to…  28152.   1180. -9959. 
##  7 29990        1301 0         1          0.2 to…  29926.   1334.    64.4
##  8 34333        1948 0         1          lower …  34616.    791.  -283. 
##  9 27717        2295 1         0          lower …  35816.    941. -8099. 
## 10 21398        4653 0         1          lower …  29718.    729. -8320. 
## # … with 190 more rows, and 4 more variables: .hat <dbl>, .sigma <dbl>,
## #   .cooksd <dbl>, .std.resid <dbl>
```
…
